[gd_scene load_steps=4 format=2]

[ext_resource path="res://sprites/M484VerticalShmupSet1-29x29.png" type="Texture" id=1]
[ext_resource path="res://scripts/Projectile.gd" type="Script" id=2]

[sub_resource type="RectangleShape2D" id=1]
extents = Vector2( 2.2253, 4.49861 )

[node name="Ion" type="Area2D"]
script = ExtResource( 2 )
speed = 150.0
duration = 2.0

[node name="Sprite" type="Sprite" parent="."]
texture = ExtResource( 1 )
region_enabled = true
region_rect = Rect2( 808, 236, 4, 9 )

[node name="CollisionShape2D" type="CollisionShape2D" parent="."]
shape = SubResource( 1 )
