[gd_scene load_steps=4 format=2]

[ext_resource path="res://sprites/M484VerticalShmupSet1-29x29.png" type="Texture" id=1]
[ext_resource path="res://scripts/Projectile.gd" type="Script" id=2]

[sub_resource type="RectangleShape2D" id=1]
extents = Vector2( 2.2253, 4.49861 )

[node name="Bullet" type="Area2D"]
rotation = 0.00118196
script = ExtResource( 2 )
damage = 0.001
speed = 100.0
duration = 2.0

[node name="Sprite" type="Sprite" parent="."]
texture = ExtResource( 1 )
region_enabled = true
region_rect = Rect2( 893.962, 160.743, 3.98389, 9.5099 )

[node name="CollisionShape2D" type="CollisionShape2D" parent="."]
shape = SubResource( 1 )
